,Symbol
0,ZY
1,ZKIN
2,ZEUS
3,YTEN
4,X
5,WPM
6,WLKP
7,WLK
8,WFG
9,WDFC
10,VNTR
11,VMC
12,VHI
13,VALE
14,USLM
15,USAU
16,USAP
17,UNVR
18,UFPI
19,UAN
20,TX
21,TSE
22,TRQ
23,TROX
24,TMST
25,TGLS
26,TECK
27,SYNL
28,SXT
29,SXC
30,SVFD
31,SUZ
32,SUM
33,STLD
34,SSRM
35,SSL
36,SQM
37,SPPP
38,SMID
39,SMG
40,SLVM
41,SKE
42,SIRE
43,SID
44,SHW
45,SGML
46,SEED
47,SCL
48,SCHN
49,SCCO
50,SBSW
51,SAND
52,SA
53,RYAM
54,RS
55,RPM
56,RIO
57,RGLD
58,RFP
59,REX
60,PRM
61,PPTA
62,PPG
63,PLL
64,PKX
65,PAAS
66,ORGN
67,OR
68,OLN
69,OEC
70,ODV
71,ODC
72,NUE
73,NTR
74,NTIC
75,NSR
76,NMG
77,NGVT
78,NEXA
79,NEU
80,NEM
81,MTX
82,MTRN
83,MTL-P
84,MTL
85,MT
86,MSB
87,MP
88,MOS
89,MLM
90,METC
91,MERC
92,MEOH
93,MATV
94,LYB
95,LXU
96,LWLG
97,LTHM
98,LOOP
99,LOMA
100,LITM
101,LIN
102,LGO
103,LAC
104,KWR
105,KRO
106,KOP
107,KGC
108,KALU
109,JHX
110,JCTCF
111,IPX
112,IPI
113,IOSP
114,IONR
115,IFF
116,ICL
117,IAG
118,HWKN
119,HUN
120,HUDI
121,HMY
122,HL-PB
123,HL
124,HDSN
125,HCC
126,HBM
127,GURE
128,GSM
129,GPRE
130,GOLD
131,GLT
132,GGB
133,GFI
134,GEVO
135,GCP
136,GATO
137,FUL
138,FSM
139,FNV
140,FMC
141,FF
142,FEAM
143,FCX
144,EXP
145,EXK
146,EVA
147,ESI
148,ERO
149,EMN
150,ELBM
151,EGO
152,ECVT
153,ECL
154,DRD
155,DOW
156,DNMR
157,DD
158,CX
159,CTVA
160,CTA-PB
161,CTA-PA
162,CSTM
163,CRH
164,CPAC
165,CNEY
166,CMP
167,CMC
168,CLW
169,CLF
170,CGAU
171,CGA
172,CF
173,CENX
174,CE
175,CDE
176,CC
177,CBT
178,BVN
179,BIOX
180,BHP
181,BHIL
182,BCPC
183,BCC
184,BAK
185,AXTA
186,AVTR
187,AVNT
188,AVD
189,AUY
190,AU
191,ASTL
192,ASIX
193,ASH
194,AREC
195,APD
196,AMRS
197,AMR
198,ALTO
199,ALB
200,AGI
201,AG
202,AEM
203,ACH
204,AA
205,ZVIA
206,YQ
207,XXII
208,WVVIP
209,WVVI
210,WMT
211,WMK
212,WILC
213,WAFU
214,VWE
215,VTRU
216,VSTA
217,VLGEA
218,VITL
219,VGR
220,VFF
221,VEDU
222,UVV
